#
# PHASE 1 - WEIGHT BASED SCORING
#

REFS

https://kapost.com/b/predictive-lead-scoring/
https://en.wikipedia.org/wiki/Lead_scoring
https://blog.hubspot.com/service/what-is-customer-churn
https://blog.hubspot.com/marketing/lead-scoring-instructions
https://www.socialmediaexaminer.com/how-to-monitor-social-media-mentions-5-listening-tools/
https://www.socialmediaexaminer.com/how-to-monitor-social-media-mentions-5-listening-tools/
https://blog.hubspot.com/customers/how-to-figure-out-which-content-is-driving-the-most-leads
http://blog.excelmasterseries.com/2010/04/using-logistic-regression-in-excel-to.html



ICP (ideal customer profile)

- demography
- online behavior (high value pages)
- e-mail engagement
- spam filters

METRICS

Your lead-to-customer conversion rate is equal to the number of new customers you acquire, divided by the number of leads you generate. Use this conversion rate as your benchmark.






#
# PHASE 2 - PREDICTIVE ANALYSIS
#

https://www.kaggle.com/ashydv/lead-scoring-logistic-regression
https://growthmarketingconf.com/regression-lead-scoring/
https://www.slideshare.net/AmazonWebServices/an-introduction-to-the-ai-services-at-aws-aws-summit-tel-aviv-2017
https://try.mightysignal.com/lead-generation/?utm_source=google&utm_medium=cpc&utm_campaign=lead-gen&utm_term=phrase-lead-score&gclid=CjwKCAjwzdLrBRBiEiwAEHrAYr2DKdKffOHE_GzFaBbsLonovdXVupQ6ZyUYWUhUQuBZCNjQIDDKPBoCmdEQAvD_BwE
https://docs.aws.amazon.com/machine-learning/latest/dg/regression-model-insights.html
https://mitrai.com/tech-guide/using-aws-sagemaker-linear-regression-to-predict-store-transactions/
https://www.engagebay.com/blog/lead-scoring-model/
https://en.wikipedia.org/wiki/Mean_squared_error
https://en.wikipedia.org/wiki/Stochastic_gradient_descent
https://en.wikipedia.org/wiki/Regression_analysis

# full MODEL
https://medium.com/@feraguilari/multiple-regression-and-recursive-feature-elimination-rfe-34af0c6ae51b

# SVM x SVR
https://www.quora.com/What-is-the-main-difference-between-a-SVM-and-SVR

# training
Data Science Bootcamp at Flatiron


# test A/B
https://en.wikipedia.org/wiki/A/B_testing

# inference statistics
https://www.khanacademy.org/math/statistics-probability/significance-tests-one-sample/more-significance-testing-videos/v/large-sample-proportion-hypothesis-testing

# ALGO
https://ai.stackexchange.com/questions/4601/which-algorithm-should-i-choose-for-lead-scoring

# EXPLICACAO
https://en.wikipedia.org/wiki/P-value
https://en.wikipedia.org/wiki/Simple_linear_regression

Subjects Studied: 
BAN 673 Time Series Analytics
BAN 674 Machine Learning for Business Analytics
BAN 675 Text Mining and Social Media Analytics
BAN 676 Deep Learning for Business Applications
BAN 610 Database Management and Applications
BAN 612 Data Analytics
BAN 620 Data Mining
BAN 622 Data Warehousing and Business Intelligence
STAT 6610 Data Visualization
BAN 630 Optimization Methods for Analytics
BAN 632 Big Data Technology and Applications
BAN 693 Business Analytics Capstone Project


# TA TUDO AQUI
https://en.wikipedia.org/wiki/Ordinary_least_squares

# CASCUDO
https://towardsdatascience.com/let-us-understand-the-correlation-matrix-and-covariance-matrix-d42e6b643c22
https://machinelearningmastery.com/k-fold-cross-validation/'

# ALL FORMULAS
https://people.duke.edu/~rnau/mathreg.htm
