CALL ANSWERED,CALL DURATION,SITE VISITED,SITE VISIT DURATION,LANDING PAGE VISIT,LANDING PAGE VISIT DURATION,EMAIL RECEIVED ,EMAIL RESPONDED,CALL ME EMAIL INTERACTION TRIGGERED,SMS RECEIVED,SMS RESPONDED,BOT INTERACTION
1,22,0,76,1,15,1,0,1,0,0,1

